"a1tvs","a1tv19","A1TVS","Service Provider Role","A1 TV SERVICES","a1tvs@aol.com"
"ancrum2","ancru13","Ancrum","Service Provider Role","ANCRUM","ancrum.service@virgin.net"
"audiovideo2","audiov15","AUDIO VIDEO SERVICE","Service Provider Role","AUDIO VIDEO SERVICE","calls@audiovideoservice.co.uk"
"audiovision2","audio22","Audiovision Isle of White","Service Provider Role","AUDIOVISION","audiovisionsvc@aol.com"
"avservice","avsc342","AV Service Centre","Service Provider Role","AV Service Centre","avsc@eircom.net"
"babber","5AdUPha5","BABBER ELECTRONICS","Service Provider Role","BABBER ELECTRONICS SERVICE CENTRE","service@babber.com"
"bavs2","f4h9q?","BENNETT AUDIO VIDEO SERVICES LTD","Service Provider Role","BENNETT AUDIO VIDEO SERVICES LTD","bavs@live.ie"
"bss2","bs19","BSS - Specialised Services","Service Provider Role","BIRMINGHAM SPECIALISED SERVICES","bss-service@btconnect.com"
"budget2","budget20","BUDGET TV","Service Provider Role","BUDGET TV","kevin@budgettvcentre.co.uk"
"camtronics","camtroni3","Camtronics","Service Provider Role","CAMTRONICS","service@camtronics.co.uk"
"CannanBrown","canbro458","CANNAN AND BROWN","Service Provider Role","Cannan & Brown",""
"Colourvision","cvct423","COLOURVISION COLOURTRONICS LTD","Service Provider Role","COLOURVISION COLOURTRONICS LTD",""
"cornwalltv","corn23","CORNWALL TV","Service Provider Role","CORNWALL TV",""
"correct2","correct20","CORRECT TV","Service Provider Role","CORRECT TV","correct@btconnect.com"
"craigavon","craigavo12","Craigavon","Service Provider Role","CRAIGAVON TV","enquiries@craigavon.tv"
"djhenry2","djhenr25","DJ Henry","Service Provider Role","D & J HENRY LTD","djhenry@btconnect.com"
"dkaudioh2","dkah451","DK AUDIO HORLEY","Service Provider Role","D K AUDIO VISUAL SERVICES HORLEY",""
"dkaudio2","dkaudi15","DK AVS","Service Provider Role","D K AUDIO VISUAL SERVICES MITCHAM","call.centre@dkavs.co.uk"
"dbsn2","dbs14","DBS Newcastle","Service Provider Role","DBS Service Centre (Newcastle)","enquiries@dbsnewcastle.co.uk"
"dbsy2","dbs25","DBS York","Service Provider Role","DBS YORK","service@dbsyork.co.uk"
"dsc2","dsc19","DSC","Service Provider Role","DSC","dscsolutions125@yahoo.co.uk"
"duncansvrs","duncan19","Duncan Video Repair Service","Service Provider Role","DUNCANS TV","Duncan.maclaren@btconnect.com"
"elecserv","elecser21","Electronic Services","Service Provider Role","Electronic Services","enquiries@electronic-services.co.uk"
"forthelec2","forthele3","FORTH ELECTRONIC SERVICES LTD","Service Provider Role","FORTH ELECTRONIC SERVICES LTD","mail@forth-electronics.com"
"genserve","genserv19","Genserve","Service Provider Role","GENSERVE","richards@genserve.co.uk"
"gogglebox2","goggle23","GOGGLEBOX TV","Service Provider Role","GOGGLEBOX TV","info@goggleboxtv.co.uk"
"gwynne","gwynnet21","Gwynne TV","Service Provider Role","GWYNNE TV","info@gwynne-tv.co.uk"
"hhvideo","hhvide15","H and H Video","Service Provider Role","H & H VIDEO","service@hhvideo.co.uk"
"herefordsc","265295","HEREFORD SERVICE CENTRE","Service Provider Role","HEREFORD SERVICE CENTRE",""
"hitechtv","hitecht21","HI TECH TV &VIDEO","Service Provider Role","Hitech","hitechdigital@btconnect.com"
"HydeParkC","hyde793","HYDE PARK CORNER","Service Provider Role","HYDE PARK CORNER",""
"ictvf2","ictv6","ICTV Farnborough","Service Provider Role","ICTV FARNBOROUGH","ictvuk@btconnect.com"
"ictvs2","ictv19","ICTV Portsmouth","Service Provider Role","ICTV SOUTHERN","graham.blake@ictvuk.com"
"isl","isl","Integrated Services","Service Provider Role","INTEGRATED SERVICES","dwjhope@btconnect.com"
"jfassociates2","jfasso3","J.F. Associates","Service Provider Role","JF ASSOCIATES","service@jfa.org.uk"
"keens2","keens19","KEENS SERVICE LIMITED","Service Provider Role","Keens Service Limited","info@keenserve.co.uk"
"keltec","kel1952","Keltec Electronics","Service Provider Role","KELTEC","keltec@indigo.ie"
"lawless","lawless217","Lawless Brothers","Service Provider Role","LAWLESS BROTHERS","lawlessbros@eircom.net"
"mdwinsford","mdwins362","MARTIN DAWES WINSFORD","Service Provider Role","MARTIN DAWES WINSFORD","geminidepot@martindawes.com"
"mmichaels2","mcmich12","MCMICHAEL BROS","Service Provider Role","MCMICHAEL BROS","service@mcmichaels.co.uk"
"mfserv","mf1851","MF Services","Service Provider Role","MF SERVICES","mfservices@eircom.net"
"mtv2","mt21","MTV Service","Service Provider Role","MTV SERVICE","enquiry@mtvservice.co.uk"
"mwes2","mwe19","MWES","Service Provider Role","MWES","samsung@mwes.co.uk"
"northwest2","northwes20","NORTH WEST APPLIANCE REPAIRS","Service Provider Role","NORTH WEST APPLIANCE REPAIRS","workshop@harc.uk.net"
"northtrade","ve6APhA2","NORTHERN TRADERS","Service Provider Role","NORTHERN TRADERS","service_nts2003@yahoo.co.uk"
"oconnors2","ocs1514","OConnors Service Limited","Service Provider Role","OConnors Service Limited","info@osservice.ie"
"pencoedsc","867241","Pencoed Service Centre","Service Provider Role","PENCOED SERVICE CENTRE","phil.clark"
"peterjones","650427","Peter Jones Electrical","Service Provider Role","PETER JONES ELECTRICAL","peter.1.jones"
"pvs2","pv19","Peterborough V.S.","Service Provider Role","Peterborough Video Services","info@pvsltd.co.uk"
"appcare2","appcar5","REPAIR GUYS (EXETER)","Service Provider Role","REPAIR GUYS","service@armtec.co.uk"
"retel2","retel12","RETEL","Service Provider Role","RETEL","retel@servicing29.freeserve.co.uk"
"sands2","sands19","SANDS TV SERVICES LTD","Service Provider Role","SANDS TV SERVICES LTD","sands.tv@btclick.com"
"servicecare","servca185","SERVICE CARE","Service Provider Role","SERVICECARE SUPPORT SERVICES LTD",""
"Sontec","sont53","SONTEC","Service Provider Role","Sontec (Electronics) Ltd",""
"soundvision","soundvis9","Sound & Vision LTD","Service Provider Role","SOUND AND VISION","soundandvision@cwgsy.net"
"southesk2","southesk11","SOUTH ESK ELECTRONICS","Service Provider Role","SOUTH ESK ELECTRONICS","southesk.electronics@virgin.net"
"startec2","startec3","STARTEC","Service Provider Role","Startec","info@startec.tv"
"svs2","sv19","SVS Poole","Service Provider Role","SVS POOLE","svs-booking@btconnect.com"
"tvae2","tvae552","TVAE","Service Provider Role","T.V.A.E.",""
"telefaults2","telefa19","TELEFAULTS","Service Provider Role","TELEFAULTS","service@telefaults.com"
"teleradio2","telerad15","TELERADIO EXPERT SERVICE","Service Provider Role","TELERADIO EXPERT SERVICE","enquiries@teleradioexpertservice.co.uk"
"tvrs2","tvrs19","TVRS","Service Provider Role","TVRS","jobs@tvrs-uk.com"
"ultratec2","ultratec3","ULTRATEC","Service Provider Role","ULTRATEC","admin@ultratec.org"
"visualfx","visual624","Visual FX","Service Provider Role","VISUAL FX SERVICE CENTRE","info@visualfx-limited.co.uk"
"vscderb","vscde182","VISUAL SERVICE CENTRE (DERBY)","Service Provider Role","Visual Service Centre (Derby)",""
"vscmanc","vscma143","VISUAL SERVICE CENTRE (MANCHESTER)","Service Provider Role","Visual Service Centre (Manchester)",""
"ymms2","ymmserv12","YORKSHIRE MULTIMEDIA SERVICE","Service Provider Role","YORKSHIRE MULTIMEDIA SERVICE","info@ymmsuk.co.uk"
"masterfix","8ay7xa","MasterFix","Service Provider Role","MASTERFIX","dew@masterfix.co.uk"